EESchema Schematic File Version 4
EELAYER 30 0
EELAYER END
$Descr A4 11693 8268
encoding utf-8
Sheet 1 1
Title ""
Date ""
Rev ""
Comp ""
Comment1 ""
Comment2 ""
Comment3 ""
Comment4 ""
$EndDescr
$Comp
L power:GNDREF #PWR0101
U 1 1 5FC43D39
P 5200 6250
F 0 "#PWR0101" H 5200 6000 50  0001 C CNN
F 1 "GNDREF" H 5205 6077 50  0001 C CNN
F 2 "" H 5200 6250 50  0001 C CNN
F 3 "" H 5200 6250 50  0001 C CNN
	1    5200 6250
	-1   0    0    -1  
$EndComp
$Comp
L power:GNDREF #PWR0102
U 1 1 5FC2FFF6
P 6850 5400
F 0 "#PWR0102" H 6850 5150 50  0001 C CNN
F 1 "GNDREF" H 6855 5227 50  0001 C CNN
F 2 "" H 6850 5400 50  0001 C CNN
F 3 "" H 6850 5400 50  0001 C CNN
	1    6850 5400
	1    0    0    -1  
$EndComp
$Comp
L Sonde_Court-Circuit-rescue:R-ZAZ_Custom R4
U 1 1 5FB91CBC
P 6400 4750
F 0 "R4" V 6615 4775 50  0000 C CNN
F 1 "1K" V 6524 4775 50  0000 C CNN
F 2 "Resistor_THT:R_Axial_DIN0207_L6.3mm_D2.5mm_P10.16mm_Horizontal" V 6531 4775 60  0001 C CNN
F 3 "" H 6400 4750 60  0000 C CNN
	1    6400 4750
	0    1    -1   0   
$EndComp
$Comp
L Sonde_Court-Circuit-rescue:R-ZAZ_Custom R5
U 1 1 5FB91822
P 6500 5600
F 0 "R5" V 6285 5625 50  0000 C CNN
F 1 "1K" V 6376 5625 50  0000 C CNN
F 2 "Resistor_THT:R_Axial_DIN0207_L6.3mm_D2.5mm_P10.16mm_Horizontal" H 6500 5600 60  0001 C CNN
F 3 "" H 6500 5600 60  0000 C CNN
	1    6500 5600
	0    -1   1    0   
$EndComp
$Comp
L Sonde_Court-Circuit-rescue:R-ZAZ_Custom R2
U 1 1 5FB8DD20
P 5200 5100
F 0 "R2" H 5400 5065 50  0000 R CNN
F 1 "1" H 5350 5160 50  0000 R CNN
F 2 "Resistor_THT:R_Axial_DIN0207_L6.3mm_D2.5mm_P10.16mm_Horizontal" H 5200 5100 60  0001 C CNN
F 3 "" H 5200 5100 60  0000 C CNN
	1    5200 5100
	1    0    0    1   
$EndComp
$Comp
L power:GNDREF #PWR0104
U 1 1 5FC5B0C8
P 7450 5200
F 0 "#PWR0104" H 7450 4950 50  0001 C CNN
F 1 "GNDREF" H 7455 5027 50  0001 C CNN
F 2 "" H 7450 5200 50  0001 C CNN
F 3 "" H 7450 5200 50  0001 C CNN
	1    7450 5200
	1    0    0    -1  
$EndComp
$Comp
L power:GNDREF #PWR0105
U 1 1 5FC5E0D4
P 8000 4450
F 0 "#PWR0105" H 8000 4200 50  0001 C CNN
F 1 "GNDREF" H 8005 4277 50  0001 C CNN
F 2 "" H 8000 4450 50  0001 C CNN
F 3 "" H 8000 4450 50  0001 C CNN
	1    8000 4450
	1    0    0    -1  
$EndComp
$Comp
L Device:C C1
U 1 1 5FBA14F9
P 4950 5150
F 0 "C1" H 5240 5200 50  0000 R CNN
F 1 "100n" H 5245 5115 50  0000 R CNN
F 2 "Capacitor_THT:C_Rect_L7.2mm_W2.5mm_P5.00mm_FKS2_FKP2_MKS2_MKP2" H 4988 5000 50  0001 C CNN
F 3 "~" H 4950 5150 50  0001 C CNN
	1    4950 5150
	-1   0    0    -1  
$EndComp
$Comp
L Sonde_Court-Circuit-rescue:R-ZAZ_Custom R1
U 1 1 5FC8F068
P 5200 4300
F 0 "R1" H 5123 4279 50  0000 R CNN
F 1 "2.2K" H 5123 4370 50  0000 R CNN
F 2 "Resistor_THT:R_Axial_DIN0207_L6.3mm_D2.5mm_P10.16mm_Horizontal" H 5123 4416 60  0001 R CNN
F 3 "" H 5200 4300 60  0000 C CNN
	1    5200 4300
	1    0    0    1   
$EndComp
$Comp
L Device:C C7
U 1 1 5FD7016B
P 7100 2250
F 0 "C7" V 7352 2250 50  0000 C CNN
F 1 "100n" V 7261 2250 50  0000 C CNN
F 2 "Capacitor_THT:C_Rect_L7.2mm_W2.5mm_P5.00mm_FKS2_FKP2_MKS2_MKP2" H 7138 2100 50  0001 C CNN
F 3 "~" H 7100 2250 50  0001 C CNN
	1    7100 2250
	-1   0    0    -1  
$EndComp
$Comp
L Device:Buzzer BZ1
U 1 1 5FB8723C
P 10000 1850
F 0 "BZ1" H 10000 2050 50  0000 L CNN
F 1 "CEM-1201" H 10000 1650 50  0000 L CNN
F 2 "Buzzer_Beeper:Buzzer_12x9.5RM7.6" V 9975 1950 50  0001 C CNN
F 3 "~" V 9975 1950 50  0001 C CNN
	1    10000 1850
	1    0    0    -1  
$EndComp
Text Notes 1600 3000 0    79   ~ 0
2-5 Vcc\n5mA en fonction\n2uA à l'arrêt
Text Notes 8200 5300 0    79   ~ 0
Ampli Op.\ntype 'Chopper'
Text Notes 3450 850  0    157  ~ 31
Sonde de court-circuit 'délicate'
Text Notes 550  7700 0    79   ~ 0
Copyright : Attribution 4.0 International (CC-BY 4.0)\n- Électro-Bidouilleur, décembre 2020\n- Frédéric Mantegazza, juin 2021
Text Notes 2750 5250 0    79   ~ 0
Sondes :\n- courant : 1 mA\n- tension : 1 mV
$Comp
L Device:C C3
U 1 1 5FBA2B57
P 5950 5150
F 0 "C3" H 5835 5196 50  0000 R CNN
F 1 "100n" H 5835 5105 50  0000 R CNN
F 2 "Capacitor_THT:C_Rect_L7.2mm_W2.5mm_P5.00mm_FKS2_FKP2_MKS2_MKP2" H 5988 5000 50  0001 C CNN
F 3 "~" H 5950 5150 50  0001 C CNN
	1    5950 5150
	-1   0    0    -1  
$EndComp
$Comp
L power:GNDREF #PWR0103
U 1 1 5FC21271
P 5950 5400
F 0 "#PWR0103" H 5950 5150 50  0001 C CNN
F 1 "GNDREF" H 5955 5227 50  0001 C CNN
F 2 "" H 5950 5400 50  0001 C CNN
F 3 "" H 5950 5400 50  0001 C CNN
	1    5950 5400
	1    0    0    -1  
$EndComp
$Comp
L Device:C C8
U 1 1 5FFDDE6C
P 5600 5950
F 0 "C8" H 5485 5996 50  0000 R CNN
F 1 "100n" H 5485 5905 50  0000 R CNN
F 2 "Capacitor_THT:C_Rect_L7.2mm_W2.5mm_P5.00mm_FKS2_FKP2_MKS2_MKP2" H 5638 5800 50  0001 C CNN
F 3 "~" H 5600 5950 50  0001 C CNN
	1    5600 5950
	-1   0    0    -1  
$EndComp
$Comp
L Device:D_Schottky D2
U 1 1 5FBE47ED
P 4550 5150
F 0 "D2" V 4550 5250 50  0000 L CNN
F 1 "1N5819" V 4000 5000 50  0000 L CNN
F 2 "Diode_THT:D_DO-35_SOD27_P7.62mm_Horizontal" H 4550 5150 50  0001 C CNN
F 3 "~" H 4550 5150 50  0001 C CNN
	1    4550 5150
	0    -1   -1   0   
$EndComp
$Comp
L MCU_Microchip_ATtiny:ATtiny85-20SU U2
U 1 1 60D44E75
P 8000 2250
F 0 "U2" H 8500 2800 50  0000 R CNN
F 1 "ATtiny85" H 8500 1700 50  0000 R CNN
F 2 "Package_DIP:DIP-8_W7.62mm" H 8000 2250 50  0001 C CIN
F 3 "http://ww1.microchip.com/downloads/en/DeviceDoc/atmel-2586-avr-8-bit-microcontroller-attiny25-attiny45-attiny85_datasheet.pdf" H 8000 2250 50  0001 C CNN
	1    8000 2250
	1    0    0    -1  
$EndComp
$Comp
L power:GNDREF #PWR0108
U 1 1 60D88EBF
P 8000 3100
F 0 "#PWR0108" H 8000 2850 50  0001 C CNN
F 1 "GNDREF" H 8005 2927 50  0001 C CNN
F 2 "" H 8000 3100 50  0001 C CNN
F 3 "" H 8000 3100 50  0001 C CNN
	1    8000 3100
	1    0    0    -1  
$EndComp
Wire Wire Line
	8000 2850 8000 2950
Wire Wire Line
	8000 1650 8000 1550
Wire Wire Line
	7100 2100 7100 1550
Wire Wire Line
	7100 1550 8000 1550
Wire Wire Line
	7100 2400 7100 2950
Wire Wire Line
	7100 2950 8000 2950
Connection ~ 8000 2950
Wire Wire Line
	8000 2950 8000 3100
Wire Wire Line
	8600 2450 9150 2450
Wire Wire Line
	9150 2450 9150 1800
Wire Wire Line
	8950 2350 8600 2350
$Comp
L Sonde_Court-Circuit-rescue:R-ZAZ_Custom R11
U 1 1 60DBD8A2
P 9500 1950
F 0 "R11" V 9400 1950 50  0000 C CNN
F 1 "510" V 9600 1950 50  0000 C CNN
F 2 "Resistor_THT:R_Axial_DIN0207_L6.3mm_D2.5mm_P10.16mm_Horizontal" H 9500 1950 60  0001 C CNN
F 3 "" H 9500 1950 60  0000 C CNN
	1    9500 1950
	0    1    1    0   
$EndComp
Wire Wire Line
	8600 2050 8950 2050
Wire Wire Line
	8650 4850 9000 4850
$Comp
L Sonde_Court-Circuit-rescue:R-ZAZ_Custom R10
U 1 1 60DF346B
P 8400 4850
F 0 "R10" V 8615 4875 50  0000 C CNN
F 1 "1K" V 8524 4875 50  0000 C CNN
F 2 "Resistor_THT:R_Axial_DIN0207_L6.3mm_D2.5mm_P10.16mm_Horizontal" H 8400 4850 60  0001 C CNN
F 3 "" H 8400 4850 60  0000 C CNN
	1    8400 4850
	0    1    -1   0   
$EndComp
$Comp
L Device:C C6
U 1 1 60E0AB03
P 7700 4350
F 0 "C6" V 7965 4345 50  0000 C CNN
F 1 "100n" V 7865 4325 50  0000 C CNN
F 2 "Capacitor_THT:C_Rect_L7.2mm_W2.5mm_P5.00mm_FKS2_FKP2_MKS2_MKP2" H 7738 4200 50  0001 C CNN
F 3 "~" H 7700 4350 50  0001 C CNN
	1    7700 4350
	0    1    -1   0   
$EndComp
Wire Wire Line
	7450 4550 7450 4350
Wire Wire Line
	7450 4350 7550 4350
Wire Wire Line
	7850 4350 8000 4350
Wire Wire Line
	8000 4350 8000 4450
$Comp
L Device:C C5
U 1 1 60E185A1
P 7750 5350
F 0 "C5" V 7900 5350 50  0000 C CNN
F 1 "10n" V 7700 5500 50  0000 C CNN
F 2 "Capacitor_THT:C_Rect_L7.2mm_W2.5mm_P5.00mm_FKS2_FKP2_MKS2_MKP2" H 7788 5200 50  0001 C CNN
F 3 "~" H 7750 5350 50  0001 C CNN
	1    7750 5350
	0    1    -1   0   
$EndComp
$Comp
L Sonde_Court-Circuit-rescue:R-ZAZ_Custom R6
U 1 1 5FB9E8E3
P 6850 5100
F 0 "R6" H 7115 5095 50  0000 R CNN
F 1 "5.1M" H 7115 5195 50  0000 R CNN
F 2 "Resistor_THT:R_Axial_DIN0207_L6.3mm_D2.5mm_P10.16mm_Horizontal" H 6850 5100 60  0001 C CNN
F 3 "" H 6850 5100 60  0000 C CNN
	1    6850 5100
	-1   0    0    1   
$EndComp
$Comp
L Sonde_Court-Circuit-rescue:R-ZAZ_Custom R3
U 1 1 5FC8E662
P 5200 5950
F 0 "R3" H 5123 5929 50  0000 R CNN
F 1 "2.2K" H 5123 6020 50  0000 R CNN
F 2 "Resistor_THT:R_Axial_DIN0207_L6.3mm_D2.5mm_P10.16mm_Horizontal" H 5200 5950 60  0001 C CNN
F 3 "" H 5200 5950 60  0000 C CNN
	1    5200 5950
	1    0    0    1   
$EndComp
$Comp
L power:GNDREF #PWR0112
U 1 1 5FFDDE76
P 5600 6250
F 0 "#PWR0112" H 5600 6000 50  0001 C CNN
F 1 "GNDREF" H 5605 6077 50  0001 C CNN
F 2 "" H 5600 6250 50  0001 C CNN
F 3 "" H 5600 6250 50  0001 C CNN
	1    5600 6250
	1    0    0    -1  
$EndComp
Wire Wire Line
	7850 4850 8050 4850
Wire Wire Line
	8050 4850 8050 5350
Connection ~ 8050 5350
Wire Wire Line
	8050 5350 7900 5350
Wire Wire Line
	8050 5350 8050 5600
Wire Wire Line
	8050 5600 7900 5600
Wire Wire Line
	7450 5150 7450 5200
Wire Wire Line
	6700 5600 7150 5600
Wire Wire Line
	5600 6100 5600 6250
Wire Wire Line
	5200 6200 5200 6250
Wire Wire Line
	5200 5350 5200 5600
Wire Wire Line
	5950 5300 5950 5400
Wire Wire Line
	5200 5600 5600 5600
Connection ~ 5200 5600
Wire Wire Line
	5200 5600 5200 5750
Wire Wire Line
	5600 5600 6250 5600
Wire Wire Line
	5600 5600 5600 5800
Wire Wire Line
	5200 4900 5200 4750
Connection ~ 5200 4750
Wire Wire Line
	5200 4750 5200 4550
Wire Wire Line
	5950 5000 5950 4750
Wire Wire Line
	5950 4750 6200 4750
Wire Wire Line
	4200 5000 4200 4750
Connection ~ 4200 4750
Wire Wire Line
	4200 4750 4550 4750
Wire Wire Line
	4200 5300 4200 5600
Connection ~ 4200 5600
Wire Wire Line
	4200 5600 4550 5600
Wire Wire Line
	4550 5300 4550 5600
Connection ~ 4550 5600
Wire Wire Line
	4550 5600 4950 5600
Wire Wire Line
	4550 5000 4550 4750
Connection ~ 4550 4750
Wire Wire Line
	4550 4750 4950 4750
Wire Wire Line
	4950 5000 4950 4750
Connection ~ 4950 4750
Wire Wire Line
	4950 4750 5200 4750
Wire Wire Line
	4950 5300 4950 5600
Connection ~ 4950 5600
Wire Wire Line
	4950 5600 5200 5600
Wire Wire Line
	6850 5350 6850 5400
Wire Wire Line
	7250 4950 7150 4950
Connection ~ 7150 5600
Wire Wire Line
	7150 5600 7450 5600
Wire Wire Line
	5200 4100 5200 3950
Wire Wire Line
	8600 2150 8950 2150
Text Notes 4100 5850 0    59   ~ 0
Optionnelles
Text Label 8750 2450 0    79   ~ 0
RST
$Comp
L Connector:AVR-ISP-6 J1
U 1 1 60DE0575
P 4950 2250
F 0 "J1" H 4621 2346 50  0000 R CNN
F 1 "AVR-ISP-6" H 4621 2255 50  0000 R CNN
F 2 "Connector_PinHeader_2.54mm:PinHeader_2x03_P2.54mm_Vertical" V 4700 2300 50  0001 C CNN
F 3 " ~" H 3675 1700 50  0001 C CNN
	1    4950 2250
	1    0    0    -1  
$EndComp
$Comp
L power:GNDREF #PWR0111
U 1 1 60DE1DD4
P 4850 2850
F 0 "#PWR0111" H 4850 2600 50  0001 C CNN
F 1 "GNDREF" H 4855 2677 50  0001 C CNN
F 2 "" H 4850 2850 50  0001 C CNN
F 3 "" H 4850 2850 50  0001 C CNN
	1    4850 2850
	1    0    0    -1  
$EndComp
Wire Wire Line
	4850 1600 4850 1750
Wire Wire Line
	4850 2650 4850 2850
Wire Wire Line
	5350 2050 5800 2050
Wire Wire Line
	5350 2150 5800 2150
Wire Wire Line
	5350 2250 5800 2250
Wire Wire Line
	5350 2350 5800 2350
Text Label 5800 2050 2    79   ~ 0
MISO
Text Label 5800 2150 2    79   ~ 0
MOSI
Text Label 5800 2250 2    79   ~ 0
SCK
Text Label 5800 2350 2    79   ~ 0
RST
$Comp
L Connector_Generic:Conn_01x01 J2
U 1 1 60DF9F2D
P 3150 4750
F 0 "J2" H 3068 4525 50  0000 C CNN
F 1 "Sonde" H 3068 4616 50  0000 C CNN
F 2 "Connector_Wire:SolderWirePad_1x01_SMD_5x10mm" H 3150 4750 50  0001 C CNN
F 3 "~" H 3150 4750 50  0001 C CNN
	1    3150 4750
	-1   0    0    1   
$EndComp
$Comp
L Connector_Generic:Conn_01x01 J3
U 1 1 60DFAC25
P 3150 5600
F 0 "J3" H 3068 5375 50  0000 C CNN
F 1 "Sonde" H 3068 5466 50  0000 C CNN
F 2 "TestPoint:TestPoint_THTPad_3.0x3.0mm_Drill1.5mm" H 3150 5600 50  0001 C CNN
F 3 "~" H 3150 5600 50  0001 C CNN
	1    3150 5600
	-1   0    0    1   
$EndComp
Text Label 8950 2150 2    79   ~ 0
SCK
Text Label 8950 1950 2    79   ~ 0
MOSI
Text Label 8950 2050 2    79   ~ 0
MISO
Wire Wire Line
	2300 1850 2300 1750
Connection ~ 2300 1850
Wire Wire Line
	2300 1850 2550 1850
Wire Wire Line
	2300 2400 2300 2500
Connection ~ 2300 2400
Wire Wire Line
	3150 2400 2300 2400
Wire Wire Line
	3150 2300 3150 2400
$Comp
L Device:Battery_Cell BT1
U 1 1 60DA986C
P 3150 2200
F 0 "BT1" H 3268 2296 50  0000 L CNN
F 1 "Battery_Cell" H 3268 2205 50  0000 L CNN
F 2 "Battery:BatteryHolder_Keystone_1060_1x2032" V 3150 2260 50  0001 C CNN
F 3 "~" V 3150 2260 50  0001 C CNN
	1    3150 2200
	1    0    0    -1  
$EndComp
Wire Wire Line
	2300 2000 2300 1850
Wire Wire Line
	2300 2300 2300 2400
$Comp
L Device:CP1 C4
U 1 1 60E69E2F
P 2300 2150
F 0 "C4" H 2415 2196 50  0000 L CNN
F 1 "10u" H 2415 2105 50  0000 L CNN
F 2 "Capacitor_THT:C_Radial_D5.0mm_H11.0mm_P2.00mm" H 2300 2150 50  0001 C CNN
F 3 "~" H 2300 2150 50  0001 C CNN
	1    2300 2150
	1    0    0    -1  
$EndComp
$Comp
L power:GNDREF #PWR0110
U 1 1 5FDEBC17
P 2300 2500
F 0 "#PWR0110" H 2300 2250 50  0001 C CNN
F 1 "GNDREF" H 2305 2327 50  0001 C CNN
F 2 "" H 2300 2500 50  0001 C CNN
F 3 "" H 2300 2500 50  0001 C CNN
	1    2300 2500
	1    0    0    -1  
$EndComp
$Comp
L power:PWR_FLAG #FLG0101
U 1 1 60E68E2B
P 1350 2050
F 0 "#FLG0101" H 1350 2125 50  0001 C CNN
F 1 "PWR_FLAG" H 1350 2223 50  0000 C CNN
F 2 "" H 1350 2050 50  0001 C CNN
F 3 "~" H 1350 2050 50  0001 C CNN
	1    1350 2050
	1    0    0    -1  
$EndComp
$Comp
L power:PWR_FLAG #FLG0102
U 1 1 60E691B0
P 1750 2250
F 0 "#FLG0102" H 1750 2325 50  0001 C CNN
F 1 "PWR_FLAG" H 1750 2423 50  0000 C CNN
F 2 "" H 1750 2250 50  0001 C CNN
F 3 "~" H 1750 2250 50  0001 C CNN
	1    1750 2250
	-1   0    0    1   
$EndComp
$Comp
L power:VCC #PWR0106
U 1 1 60E6FEF2
P 2300 1750
F 0 "#PWR0106" H 2300 1600 50  0001 C CNN
F 1 "VCC" H 2315 1923 50  0000 C CNN
F 2 "" H 2300 1750 50  0001 C CNN
F 3 "" H 2300 1750 50  0001 C CNN
	1    2300 1750
	1    0    0    -1  
$EndComp
$Comp
L power:VCC #PWR0107
U 1 1 60E703C4
P 1750 2050
F 0 "#PWR0107" H 1750 1900 50  0001 C CNN
F 1 "VCC" H 1765 2223 50  0000 C CNN
F 2 "" H 1750 2050 50  0001 C CNN
F 3 "" H 1750 2050 50  0001 C CNN
	1    1750 2050
	1    0    0    -1  
$EndComp
$Comp
L power:VCC #PWR0109
U 1 1 60E70CCB
P 4850 1600
F 0 "#PWR0109" H 4850 1450 50  0001 C CNN
F 1 "VCC" H 4865 1773 50  0000 C CNN
F 2 "" H 4850 1600 50  0001 C CNN
F 3 "" H 4850 1600 50  0001 C CNN
	1    4850 1600
	1    0    0    -1  
$EndComp
$Comp
L power:VCC #PWR0113
U 1 1 60E7125D
P 8000 1400
F 0 "#PWR0113" H 8000 1250 50  0001 C CNN
F 1 "VCC" H 8015 1573 50  0000 C CNN
F 2 "" H 8000 1400 50  0001 C CNN
F 3 "" H 8000 1400 50  0001 C CNN
	1    8000 1400
	1    0    0    -1  
$EndComp
Wire Wire Line
	8000 1550 8000 1400
Connection ~ 8000 1550
$Comp
L power:VCC #PWR0114
U 1 1 60E74B06
P 7450 4150
F 0 "#PWR0114" H 7450 4000 50  0001 C CNN
F 1 "VCC" H 7465 4323 50  0000 C CNN
F 2 "" H 7450 4150 50  0001 C CNN
F 3 "" H 7450 4150 50  0001 C CNN
	1    7450 4150
	1    0    0    -1  
$EndComp
Wire Wire Line
	7450 4350 7450 4150
Connection ~ 7450 4350
$Comp
L power:GNDREF #PWR0115
U 1 1 60E7859C
P 1350 2250
F 0 "#PWR0115" H 1350 2000 50  0001 C CNN
F 1 "GNDREF" H 1355 2077 50  0001 C CNN
F 2 "" H 1350 2250 50  0001 C CNN
F 3 "" H 1350 2250 50  0001 C CNN
	1    1350 2250
	1    0    0    -1  
$EndComp
Wire Wire Line
	1350 2050 1350 2250
Wire Wire Line
	1750 2050 1750 2250
$Comp
L power:VCC #PWR0116
U 1 1 60E8285D
P 5200 3950
F 0 "#PWR0116" H 5200 3800 50  0001 C CNN
F 1 "VCC" H 5215 4123 50  0000 C CNN
F 2 "" H 5200 3950 50  0001 C CNN
F 3 "" H 5200 3950 50  0001 C CNN
	1    5200 3950
	1    0    0    -1  
$EndComp
$Comp
L power:VCC #PWR0117
U 1 1 60E82DF3
P 9150 1200
F 0 "#PWR0117" H 9150 1050 50  0001 C CNN
F 1 "VCC" H 9165 1373 50  0000 C CNN
F 2 "" H 9150 1200 50  0001 C CNN
F 3 "" H 9150 1200 50  0001 C CNN
	1    9150 1200
	1    0    0    -1  
$EndComp
$Comp
L Sonde_Court-Circuit-rescue:R-ZAZ_Custom R9
U 1 1 60DA447E
P 9150 1550
F 0 "R9" H 9073 1529 50  0000 R CNN
F 1 "10k" H 9073 1620 50  0000 R CNN
F 2 "Resistor_THT:R_Axial_DIN0207_L6.3mm_D2.5mm_P10.16mm_Horizontal" H 9073 1666 60  0001 R CNN
F 3 "" H 9150 1550 60  0000 C CNN
	1    9150 1550
	1    0    0    1   
$EndComp
Wire Wire Line
	9900 1950 9750 1950
Wire Wire Line
	9150 1350 9150 1200
Wire Wire Line
	8600 1950 9300 1950
$Comp
L power:VCC #PWR0118
U 1 1 60EC0B18
P 9750 1600
F 0 "#PWR0118" H 9750 1450 50  0001 C CNN
F 1 "VCC" H 9765 1773 50  0000 C CNN
F 2 "" H 9750 1600 50  0001 C CNN
F 3 "" H 9750 1600 50  0001 C CNN
	1    9750 1600
	1    0    0    -1  
$EndComp
Wire Wire Line
	9750 1600 9750 1750
Wire Wire Line
	9750 1750 9900 1750
Text Label 9000 4850 2    79   ~ 0
ADC
Text Label 8950 2350 2    79   ~ 0
ADC
Wire Wire Line
	8050 4850 8200 4850
Connection ~ 8050 4850
$Comp
L Switch:SW_SPST SW1
U 1 1 60FDA347
P 2750 1850
F 0 "SW1" H 2750 2085 50  0000 C CNN
F 1 "ON/OFF" H 2750 1994 50  0000 C CNN
F 2 "Connector_PinHeader_2.54mm:PinHeader_1x02_P2.54mm_Vertical" H 2750 1850 50  0001 C CNN
F 3 "~" H 2750 1850 50  0001 C CNN
	1    2750 1850
	1    0    0    -1  
$EndComp
Wire Wire Line
	2950 1850 3150 1850
Wire Wire Line
	3150 1850 3150 2000
Wire Wire Line
	3350 4750 4200 4750
Wire Wire Line
	3350 5600 4200 5600
Wire Wire Line
	6650 4750 6850 4750
Wire Wire Line
	6850 4900 6850 4750
Connection ~ 6850 4750
Wire Wire Line
	6850 4750 7250 4750
$Comp
L Device:D_Schottky D1
U 1 1 61067FAA
P 4200 5150
F 0 "D1" V 4200 4950 50  0000 L CNN
F 1 "1N5819" V 4750 5000 50  0000 L CNN
F 2 "Diode_THT:D_DO-35_SOD27_P7.62mm_Horizontal" H 4200 5150 50  0001 C CNN
F 3 "~" H 4200 5150 50  0001 C CNN
	1    4200 5150
	0    1    1    0   
$EndComp
Wire Wire Line
	8600 2250 9500 2250
Wire Wire Line
	9500 2250 9500 2400
$Comp
L power:GNDREF #PWR0119
U 1 1 60D4F25C
P 9500 2950
F 0 "#PWR0119" H 9500 2700 50  0001 C CNN
F 1 "GNDREF" H 9505 2777 50  0001 C CNN
F 2 "" H 9500 2950 50  0001 C CNN
F 3 "" H 9500 2950 50  0001 C CNN
	1    9500 2950
	1    0    0    -1  
$EndComp
Wire Wire Line
	9500 2800 9500 2950
Connection ~ 5600 5600
Wire Wire Line
	7600 5350 7150 5350
Wire Wire Line
	7150 4950 7150 5350
Connection ~ 7150 5350
Wire Wire Line
	7150 5350 7150 5600
$Comp
L Sonde_Court-Circuit-rescue:R-ZAZ_Custom R8
U 1 1 60E15C42
P 7650 5600
F 0 "R8" V 7750 5600 50  0000 C CNN
F 1 "5.1M" V 7550 5650 50  0000 C CNN
F 2 "Resistor_THT:R_Axial_DIN0207_L6.3mm_D2.5mm_P10.16mm_Horizontal" H 7650 5600 60  0001 C CNN
F 3 "" H 7650 5600 60  0000 C CNN
	1    7650 5600
	0    1    -1   0   
$EndComp
$Comp
L Switch:SW_Push PB1
U 1 1 60D4B557
P 9500 2600
F 0 "PB1" V 9454 2748 50  0000 L CNN
F 1 "Ref." V 9545 2748 50  0000 L CNN
F 2 "Connector_PinHeader_2.54mm:PinHeader_1x02_P2.54mm_Vertical" H 9500 2800 50  0001 C CNN
F 3 "~" H 9500 2800 50  0001 C CNN
	1    9500 2600
	0    1    1    0   
$EndComp
$Comp
L Amplifier_Operational:OPA333xxD U1
U 1 1 60DA8787
P 7550 4850
F 0 "U1" H 7550 5100 50  0000 L CNN
F 1 "OPA333xxD" H 7550 5000 50  0000 L CNN
F 2 "Package_SO:SOIC-8_3.9x4.9mm_P1.27mm" H 7450 4650 50  0001 L CNN
F 3 "http://www.ti.com/lit/ds/symlink/opa333.pdf" H 7700 5000 50  0001 C CNN
	1    7550 4850
	1    0    0    -1  
$EndComp
$Comp
L Connector_Generic:Conn_01x01 J4
U 1 1 60E5B50E
P 5950 4350
F 0 "J4" H 5868 4125 50  0000 C CNN
F 1 "Sonde" H 5868 4216 50  0000 C CNN
F 2 "Connector_Wire:SolderWire-0.5sqmm_1x01_D0.9mm_OD2.3mm" H 5950 4350 50  0001 C CNN
F 3 "~" H 5950 4350 50  0001 C CNN
	1    5950 4350
	0    -1   -1   0   
$EndComp
$Comp
L Jumper:Jumper_2_Bridged JP1
U 1 1 60E62FA1
P 5550 4750
F 0 "JP1" H 5550 4945 50  0000 C CNN
F 1 "Jumper" H 5550 4854 50  0000 C CNN
F 2 "Connector_PinHeader_2.54mm:PinHeader_1x02_P2.54mm_Vertical" H 5550 4750 50  0001 C CNN
F 3 "~" H 5550 4750 50  0001 C CNN
	1    5550 4750
	1    0    0    -1  
$EndComp
Wire Wire Line
	5200 4750 5350 4750
Wire Wire Line
	5750 4750 5950 4750
Connection ~ 5950 4750
Wire Wire Line
	5950 4550 5950 4750
$EndSCHEMATC
